…
`summarise()` has grouped output by 'studyid', 'country'. You can override using the `.groups` argument.
`summarise()` has grouped output by 'studyid', 'country', 'agecat'. You can override using the `.groups` argument.
`summarise()` has grouped output by 'studyid', 'country'. You can override using the `.groups` argument.
`summarise()` has grouped output by 'studyid', 'country', 'agecat'. You can override using the `.groups` argument.
`summarise()` has grouped output by 'studyid', 'country'. You can override using the `.groups` argument.
# A tibble: 5 x 4
  agecat       inc.case     ptar cruderate
  <fct>           <dbl>    <dbl>     <dbl>
1 0-6 months       2532 1262540   0.00201 
2 6-12 months      1326 1422151   0.000932
3 12-18 months      986 1222784.  0.000806
4 18-24 months      729 1115810.  0.000653
5 <NA>              653 2123329   0.000308
`summarise()` has grouped output by 'studyid', 'country'. You can override using the `.groups` argument.
# A tibble: 70 x 7
# Groups:   studyid, country [18]
   studyid        country    agecat         ptar ncase nchild nstudy
   <chr>          <fct>      <fct>         <dbl> <dbl>  <int>  <int>
 1 CMC-V-BCS-2002 INDIA      0-6 months   39740    201    368      1
 2 CMC-V-BCS-2002 INDIA      6-12 months  54754     66    372      1
 3 CMC-V-BCS-2002 INDIA      12-18 months 58134.    34    373      1
 4 CMC-V-BCS-2002 INDIA      18-24 months 61138.    23    373      1
 5 CMIN           BANGLADESH 0-6 months   35058.    52    272      1
 6 CMIN           BANGLADESH 6-12 months  40490.    56    252      1
 7 CMIN           BANGLADESH 12-18 months 36807     43    250      1
 8 CMIN           BANGLADESH 18-24 months 37222.    39    247      1
 9 CONTENT        PERU       0-6 months   34982.     4    215      1
10 CONTENT        PERU       6-12 months  40798.     0    215      1
# … with 60 more rows
# A tibble: 5 x 4
  agecat       inc.case     ptar cruderate
  <fct>           <dbl>    <dbl>     <dbl>
1 0-6 months       1378  441997   0.00312 
2 6-12 months       557  519924.  0.00107 
3 12-18 months      481  477567   0.00101 
4 18-24 months      374  479580.  0.000780
5 <NA>              464 1343251   0.000345
`summarise()` has grouped output by 'studyid', 'country'. You can override using the `.groups` argument.
# A tibble: 39 x 7
# Groups:   studyid, country [10]
   studyid        country    agecat         ptar ncase nchild nstudy
   <chr>          <fct>      <fct>         <dbl> <dbl>  <int>  <int>
 1 CMC-V-BCS-2002 INDIA      0-6 months   39740    201    368      1
 2 CMC-V-BCS-2002 INDIA      6-12 months  54754     66    372      1
 3 CMC-V-BCS-2002 INDIA      12-18 months 58134.    34    373      1
 4 CMC-V-BCS-2002 INDIA      18-24 months 61138.    23    373      1
 5 CMIN           BANGLADESH 0-6 months   35058.    52    272      1
 6 CMIN           BANGLADESH 6-12 months  40490.    56    252      1
 7 CMIN           BANGLADESH 12-18 months 36807     43    250      1
 8 CMIN           BANGLADESH 18-24 months 37222.    39    247      1
 9 EE             PAKISTAN   0-6 months   47991    127    380      1
10 EE             PAKISTAN   6-12 months  55494.    62    374      1
# … with 29 more rows
…
  <chr>   <fct>   <fct>         <dbl> <dbl>  <int>  <int>
1 MAL-ED  BRAZIL  0-6 months   31084.    15    233      1
2 MAL-ED  BRAZIL  6-12 months  35566.     3    207      1
3 MAL-ED  BRAZIL  12-18 months 33302.     2    194      1
4 MAL-ED  BRAZIL  18-24 months 30342      4    176      1
# A tibble: 5 x 4
  agecat       inc.case     ptar cruderate
  <fct>           <dbl>    <dbl>     <dbl>
1 0-6 months       3051 3732848.  0.000817
2 6-12 months      3492 4510458.  0.000774
3 12-18 months     2984 3761044.  0.000793
4 18-24 months     2073 2988676.  0.000694
5 <NA>             1292 4241369   0.000305
`summarise()` has grouped output by 'studyid', 'country'. You can override using the `.groups` argument.
# A tibble: 72 x 7
# Groups:   studyid, country [18]
   studyid        country    agecat          ptar ncase nchild nstudy
   <chr>          <fct>      <fct>          <dbl> <dbl>  <int>  <int>
 1 CMC-V-BCS-2002 INDIA      0-6 months   124100    238    797      1
 2 CMC-V-BCS-2002 INDIA      6-12 months  174280    154    795      1
 3 CMC-V-BCS-2002 INDIA      12-18 months 177404.    98    788      1
 4 CMC-V-BCS-2002 INDIA      18-24 months 170234     74    750      1
 5 CMIN           BANGLADESH 0-6 months   101854     84    567      1
 6 CMIN           BANGLADESH 6-12 months  127730.   131    546      1
 7 CMIN           BANGLADESH 12-18 months 114888.   132    537      1
 8 CMIN           BANGLADESH 18-24 months 104090.   105    498      1
 9 CONTENT        PERU       0-6 months   102728      6    440      1
10 CONTENT        PERU       6-12 months  120111      1    436      1
# … with 62 more rows
# A tibble: 5 x 4
  agecat       inc.case     ptar cruderate
  <fct>           <dbl>    <dbl>     <dbl>
1 0-6 months       1591 1319332   0.00121 
2 6-12 months      1539 1643198.  0.000937
3 12-18 months     1518 1467222   0.00103 
4 18-24 months     1120 1305006.  0.000858
5 <NA>              928 2686502   0.000345
`summarise()` has grouped output by 'studyid', 'country'. You can override using the `.groups` argument.
# A tibble: 40 x 7
# Groups:   studyid, country [10]
   studyid        country    agecat          ptar ncase nchild nstudy
   <chr>          <fct>      <fct>          <dbl> <dbl>  <int>  <int>
 1 CMC-V-BCS-2002 INDIA      0-6 months   124100    238    797      1
 2 CMC-V-BCS-2002 INDIA      6-12 months  174280    154    795      1
 3 CMC-V-BCS-2002 INDIA      12-18 months 177404.    98    788      1
 4 CMC-V-BCS-2002 INDIA      18-24 months 170234     74    750      1
 5 CMIN           BANGLADESH 0-6 months   101854     84    567      1
 6 CMIN           BANGLADESH 6-12 months  127730.   131    546      1
 7 CMIN           BANGLADESH 12-18 months 114888.   132    537      1
 8 CMIN           BANGLADESH 18-24 months 104090.   105    498      1
 9 EE             PAKISTAN   0-6 months   147162    182    777      1
10 EE             PAKISTAN   6-12 months  172877    159    748      1
# … with 30 more rows
…
  <chr>   <fct>   <fct>          <dbl> <dbl>  <int>  <int>
1 MAL-ED  BRAZIL  0-6 months    94845     18    510      1
2 MAL-ED  BRAZIL  6-12 months  111362.     7    486      1
3 MAL-ED  BRAZIL  12-18 months 104537      6    469      1
4 MAL-ED  BRAZIL  18-24 months  86752.     9    423      1
# A tibble: 5 x 4
  agecat       inc.case    ptar cruderate
  <fct>           <dbl>   <dbl>     <dbl>
1 0-6 months        774 1395107 0.000555 
2 6-12 months       340 1540941 0.000221 
3 12-18 months      267 1352378 0.000197 
4 18-24 months      161 1209543 0.000133 
5 <NA>              100 2224278 0.0000450
`summarise()` has grouped output by 'studyid', 'country'. You can override using the `.groups` argument.
# A tibble: 70 x 7
# Groups:   studyid, country [18]
   studyid        country    agecat         ptar ncase nchild nstudy
   <chr>          <fct>      <fct>         <dbl> <dbl>  <int>  <int>
 1 CMC-V-BCS-2002 INDIA      0-6 months   51274.    67    368      1
 2 CMC-V-BCS-2002 INDIA      6-12 months  64238.    18    372      1
 3 CMC-V-BCS-2002 INDIA      12-18 months 65014.     9    373      1
 4 CMC-V-BCS-2002 INDIA      18-24 months 65585      5    373      1
 5 CMIN           BANGLADESH 0-6 months   37178.    14    272      1
 6 CMIN           BANGLADESH 6-12 months  45040.    12    252      1
 7 CMIN           BANGLADESH 12-18 months 42838.     5    250      1
 8 CMIN           BANGLADESH 18-24 months 43509     13    247      1
 9 CONTENT        PERU       0-6 months   35176      1    215      1
10 CONTENT        PERU       6-12 months  40928.     0    215      1
# … with 60 more rows
# A tibble: 5 x 4
  agecat       inc.case     ptar cruderate
  <fct>           <dbl>    <dbl>     <dbl>
1 0-6 months        444  518320. 0.000857 
2 6-12 months       126  579902. 0.000217 
3 12-18 months      128  555380. 0.000230 
4 18-24 months       71  538504. 0.000132 
5 <NA>               44 1427570. 0.0000308
`summarise()` has grouped output by 'studyid', 'country'. You can override using the `.groups` argument.
# A tibble: 39 x 7
# Groups:   studyid, country [10]
   studyid        country    agecat         ptar ncase nchild nstudy
   <chr>          <fct>      <fct>         <dbl> <dbl>  <int>  <int>
 1 CMC-V-BCS-2002 INDIA      0-6 months   51274.    67    368      1
 2 CMC-V-BCS-2002 INDIA      6-12 months  64238.    18    372      1
 3 CMC-V-BCS-2002 INDIA      12-18 months 65014.     9    373      1
 4 CMC-V-BCS-2002 INDIA      18-24 months 65585      5    373      1
 5 CMIN           BANGLADESH 0-6 months   37178.    14    272      1
 6 CMIN           BANGLADESH 6-12 months  45040.    12    252      1
 7 CMIN           BANGLADESH 12-18 months 42838.     5    250      1
 8 CMIN           BANGLADESH 18-24 months 43509     13    247      1
 9 EE             PAKISTAN   0-6 months   54408     36    380      1
10 EE             PAKISTAN   6-12 months  64780     18    374      1
# … with 29 more rows
…
4 MAL-ED  BRAZIL  18-24 months 30876.     1    176      1
# A tibble: 9 x 4
  agecat       inc.case     ptar cruderate
  <fct>           <dbl>    <dbl>     <dbl>
1 0-3 months       1897  493386.  0.00384 
2 3-6 months        635  769154.  0.000826
3 6-9 months        627  707610   0.000886
4 9-12 months       699  714541   0.000978
5 12-15 months      536  617213   0.000868
6 15-18 months      450  605570.  0.000743
7 18-21 months      392  580816.  0.000675
8 21-24 months      337  534994   0.000630
9 <NA>              653 2123329   0.000308
`summarise()` has grouped output by 'studyid', 'country'. You can override using the `.groups` argument.
# A tibble: 139 x 7
# Groups:   studyid, country [18]
   studyid        country    agecat         ptar ncase nchild nstudy
   <chr>          <fct>      <fct>         <dbl> <dbl>  <int>  <int>
 1 CMC-V-BCS-2002 INDIA      0-3 months   17142.   155    362      1
 2 CMC-V-BCS-2002 INDIA      3-6 months   22598.    46    366      1
 3 CMC-V-BCS-2002 INDIA      6-9 months   26650.    35    371      1
 4 CMC-V-BCS-2002 INDIA      9-12 months  28104.    31    370      1
 5 CMC-V-BCS-2002 INDIA      12-15 months 28862.    19    371      1
 6 CMC-V-BCS-2002 INDIA      15-18 months 29272     15    371      1
 7 CMC-V-BCS-2002 INDIA      18-21 months 29886.    13    372      1
 8 CMC-V-BCS-2002 INDIA      21-24 months 31252     10    371      1
 9 CMIN           BANGLADESH 0-3 months   13480.    28    264      1
10 CMIN           BANGLADESH 3-6 months   21579     24    259      1
# … with 129 more rows
# A tibble: 9 x 4
  agecat       inc.case     ptar cruderate
  <fct>           <dbl>    <dbl>     <dbl>
1 0-3 months       1091  182333   0.00598 
2 3-6 months        287  259664   0.00111 
3 6-9 months        223  217454.  0.00103 
4 9-12 months       334  302470   0.00110 
5 12-15 months      269  255670   0.00105 
6 15-18 months      212  221897   0.000955
7 18-21 months      201  240692   0.000835
8 21-24 months      173  238888.  0.000724
9 <NA>              464 1343251   0.000345
`summarise()` has grouped output by 'studyid', 'country'. You can override using the `.groups` argument.
# A tibble: 78 x 7
# Groups:   studyid, country [10]
   studyid        country    agecat         ptar ncase nchild nstudy
   <chr>          <fct>      <fct>         <dbl> <dbl>  <int>  <int>
 1 CMC-V-BCS-2002 INDIA      0-3 months   17142.   155    362      1
 2 CMC-V-BCS-2002 INDIA      3-6 months   22598.    46    366      1
 3 CMC-V-BCS-2002 INDIA      6-9 months   26650.    35    371      1
 4 CMC-V-BCS-2002 INDIA      9-12 months  28104.    31    370      1
 5 CMC-V-BCS-2002 INDIA      12-15 months 28862.    19    371      1
 6 CMC-V-BCS-2002 INDIA      15-18 months 29272     15    371      1
 7 CMC-V-BCS-2002 INDIA      18-21 months 29886.    13    372      1
 8 CMC-V-BCS-2002 INDIA      21-24 months 31252     10    371      1
 9 CMIN           BANGLADESH 0-3 months   13480.    28    264      1
10 CMIN           BANGLADESH 3-6 months   21579     24    259      1
# … with 68 more rows
# A tibble: 9 x 4
  agecat       inc.case    ptar cruderate
  <fct>           <dbl>   <dbl>     <dbl>
1 0-3 months        782 266688.  0.00293 
2 3-6 months        332 407940.  0.000814
3 6-9 months        394 399930   0.000985
4 9-12 months       344 332616   0.00103 
5 12-15 months      257 295144   0.000871
6 15-18 months      228 327745   0.000696
7 18-21 months      185 288496   0.000641
8 21-24 months      157 245046   0.000641
9 <NA>              180 542801   0.000332
`summarise()` has grouped output by 'studyid', 'country'. You can override using the `.groups` argument.
# A tibble: 32 x 7
# Groups:   studyid, country [4]
   studyid country  agecat          ptar ncase nchild nstudy
   <chr>   <fct>    <fct>          <dbl> <dbl>  <int>  <int>
 1 Keneba  GAMBIA   0-3 months   111004.   552   2295      1
 2 Keneba  GAMBIA   3-6 months   174783    172   2266      1
 3 Keneba  GAMBIA   6-9 months   196108    259   2220      1
 4 Keneba  GAMBIA   9-12 months  159892.   230   2129      1
 5 Keneba  GAMBIA   12-15 months 147266.   164   1924      1
 6 Keneba  GAMBIA   15-18 months 181008.   153   1892      1
 7 Keneba  GAMBIA   18-21 months 203984.   153   1893      1
 8 Keneba  GAMBIA   21-24 months 198056.   145   1789      1
 9 MAL-ED  TANZANIA 0-3 months    16069      7    261      1
10 MAL-ED  TANZANIA 3-6 months    21919      7    253      1
# … with 22 more rows
# A tibble: 9 x 4
  agecat       inc.case    ptar cruderate
  <fct>           <dbl>   <dbl>     <dbl>
1 0-3 months         24  44365  0.000541 
2 3-6 months         16 101549  0.000158 
3 6-9 months         10  90226. 0.000111 
4 9-12 months        21  79455  0.000264 
5 12-15 months       10  66399  0.000151 
6 15-18 months       10  55928. 0.000179 
7 18-21 months        6  51628. 0.000116 
8 21-24 months        7  51060. 0.000137 
9 <NA>                9 237277  0.0000379
`summarise()` has grouped output by 'studyid', 'country'. You can override using the `.groups` argument.
# A tibble: 29 x 7
# Groups:   studyid, country [4]
   studyid       country   agecat         ptar ncase nchild nstudy
   <chr>         <fct>     <fct>         <dbl> <dbl>  <int>  <int>
 1 CONTENT       PERU      0-3 months   17185      2    215      1
 2 CONTENT       PERU      3-6 months   17796.     2    215      1
 3 CONTENT       PERU      6-9 months   20347      0    215      1
 4 CONTENT       PERU      9-12 months  20452.     0    215      1
 5 CONTENT       PERU      12-15 months 13558.     1    214      1
 6 CONTENT       PERU      15-18 months 18146      0    205      1
 7 CONTENT       PERU      18-21 months 17666.     0    197      1
 8 CONTENT       PERU      21-24 months 17732.     2    193      1
 9 Guatemala BSC GUATEMALA 3-6 months   39983     10    295      1
10 Guatemala BSC GUATEMALA 6-9 months   28850.     9    277      1
# … with 19 more rows
# A tibble: 9 x 4
  agecat       inc.case    ptar cruderate
  <fct>           <dbl>   <dbl>     <dbl>
1 0-3 months        418  44667   0.00936 
2 3-6 months        109  67246.  0.00162 
3 6-9 months         84  72956.  0.00115 
4 9-12 months        91  77316.  0.00118 
5 12-15 months       60  74059   0.000810
6 15-18 months       51  74999   0.000680
7 18-21 months       48  77120   0.000622
8 21-24 months       39  84874   0.000460
9 <NA>              287 542841   0.000529
`summarise()` has grouped output by 'studyid', 'country'. You can override using the `.groups` argument.
# A tibble: 24 x 7
# Groups:   studyid, country [3]
   studyid        country agecat         ptar ncase nchild nstudy
   <chr>          <fct>   <fct>         <dbl> <dbl>  <int>  <int>
 1 CMC-V-BCS-2002 INDIA   0-3 months   17142.   155    362      1
 2 CMC-V-BCS-2002 INDIA   3-6 months   22598.    46    366      1
 3 CMC-V-BCS-2002 INDIA   6-9 months   26650.    35    371      1
 4 CMC-V-BCS-2002 INDIA   9-12 months  28104.    31    370      1
 5 CMC-V-BCS-2002 INDIA   12-15 months 28862.    19    371      1
 6 CMC-V-BCS-2002 INDIA   15-18 months 29272     15    371      1
 7 CMC-V-BCS-2002 INDIA   18-21 months 29886.    13    372      1
 8 CMC-V-BCS-2002 INDIA   21-24 months 31252     10    371      1
 9 MAL-ED         INDIA   0-3 months   11415     70    251      1
10 MAL-ED         INDIA   3-6 months   17871     16    240      1
# … with 14 more rows
# A tibble: 9 x 4
  agecat       inc.case    ptar cruderate
  <fct>           <dbl>   <dbl>     <dbl>
1 0-3 months        242  62851   0.00385 
2 3-6 months         58  88388.  0.000656
3 6-9 months         31  41398   0.000749
4 9-12 months        75 118011   0.000636
5 12-15 months       56  87320.  0.000641
6 15-18 months       59  60476.  0.000976
7 18-21 months       59  85351   0.000691
8 21-24 months       42  82869   0.000507
9 <NA>              144 657346   0.000219
`summarise()` has grouped output by 'studyid', 'country'. You can override using the `.groups` argument.
# A tibble: 24 x 7
# Groups:   studyid, country [3]
   studyid country    agecat         ptar ncase nchild nstudy
   <chr>   <fct>      <fct>         <dbl> <dbl>  <int>  <int>
 1 CMIN    BANGLADESH 0-3 months   13480.    28    264      1
 2 CMIN    BANGLADESH 3-6 months   21579     24    259      1
 3 CMIN    BANGLADESH 6-9 months   20443     25    252      1
 4 CMIN    BANGLADESH 9-12 months  20046.    31    250      1
 5 CMIN    BANGLADESH 12-15 months 18137     19    249      1
 6 CMIN    BANGLADESH 15-18 months 18670     24    247      1
 7 CMIN    BANGLADESH 18-21 months 18452.    21    245      1
 8 CMIN    BANGLADESH 21-24 months 18771     18    243      1
 9 MAL-ED  BANGLADESH 0-3 months   12506.    53    263      1
10 MAL-ED  BANGLADESH 3-6 months   19772.    10    246      1
# … with 14 more rows
…
8 MAL-ED  BRAZIL  21-24 months 15076.     2    169      1
# A tibble: 9 x 4
  agecat       inc.case     ptar cruderate
  <fct>           <dbl>    <dbl>     <dbl>
1 0-3 months       1479 1364244.  0.00108 
2 3-6 months       1572 2368604   0.000664
3 6-9 months       1609 2276838.  0.000707
4 9-12 months      1883 2233619   0.000843
5 12-15 months     1601 1951304.  0.000820
6 15-18 months     1383 1809741   0.000764
7 18-21 months     1142 1619016.  0.000705
8 21-24 months      931 1369660   0.000680
9 <NA>             1292 4241369   0.000305
`summarise()` has grouped output by 'studyid', 'country'. You can override using the `.groups` argument.
# A tibble: 143 x 7
# Groups:   studyid, country [18]
   studyid        country    agecat         ptar ncase nchild nstudy
   <chr>          <fct>      <fct>         <dbl> <dbl>  <int>  <int>
 1 CMC-V-BCS-2002 INDIA      0-3 months   47981    141    795      1
 2 CMC-V-BCS-2002 INDIA      3-6 months   76119     97    794      1
 3 CMC-V-BCS-2002 INDIA      6-9 months   85744.    79    791      1
 4 CMC-V-BCS-2002 INDIA      9-12 months  88536.    75    791      1
 5 CMC-V-BCS-2002 INDIA      12-15 months 89172     50    788      1
 6 CMC-V-BCS-2002 INDIA      15-18 months 88232.    48    774      1
 7 CMC-V-BCS-2002 INDIA      18-21 months 86510.    43    749      1
 8 CMC-V-BCS-2002 INDIA      21-24 months 83724.    31    698      1
 9 CMIN           BANGLADESH 0-3 months   37585     30    549      1
10 CMIN           BANGLADESH 3-6 months   64269     54    540      1
# … with 133 more rows
…
